{
    "version": "2",
    "sql": [
      {
        "schema": ".",
        "queries": "./query.sql",
        "engine": "postgresql",
        "gen": {
          "go": {
            "package": "postgres",
            "out": ".",
            "output_models_file_name": "query_model.go",
            "overrides": [
              {
                "column": "pg_stat_statements.userid",
                "go_type": "int"
              },
              {
                "column": "pg_stat_statements.dbid",
                "go_type": "int"
              }
            ]
          }
        }
      },
      {
        "schema": "../../../migrations",
        "queries": "./dummy.sql",
        "engine": "postgresql",
        "gen": {
          "go": {
            "package": "postgres",
            "out": ".",
            "output_models_file_name": "dummy_model.go"
          }
        }

      }
    ]
  }